%YAML 1.1
%TAG !u! tag:unity3d.com,2011:
--- !u!114 &11400000
MonoBehaviour:
  m_ObjectHideFlags: 0
  m_CorrespondingSourceObject: {fileID: 0}
  m_PrefabInstance: {fileID: 0}
  m_PrefabAsset: {fileID: 0}
  m_GameObject: {fileID: 0}
  m_Enabled: 1
  m_EditorHideFlags: 0
  m_Script: {fileID: 11500000, guid: 34a7c8ca992f915438a96c2077353778, type: 3}
  m_Name: ChaseBehavior
  m_EditorClassIdentifier: 
  brickName: Assets/#BehaviorBricks_BehaviorTrees/Behaviors/ChaseBehavior.asset
  xml: "\uFEFF<?xml version=\"1.0\" encoding=\"utf-8\"?>\r\n<BehaviorBricks xmlns:ref=\"urn:padaone\"
    version=\"1.0\">\r\n  <BehaviorTree id=\"0\" />\r\n  <runtimeInfo>\r\n    <BehaviorTree
    id=\"0\" guid=\"f58298e6e68f71f4d8bd4050f44bfe0a\" nextId=\"6\">\r\n      <root>\r\n       
    <PrioritySelectorNode id=\"1\" />\r\n      </root>\r\n      <inputParams>\r\n       
    <inputValues>\r\n          <entry name=\"target\" type=\"UnityEngine.GameObject\"
    isBlackboard=\"False\" />\r\n          <entry name=\"closeDistance\" type=\"System.Single\"
    isBlackboard=\"False\" value=\"0\" />\r\n        </inputValues>\r\n      </inputParams>\r\n     
    <outputParams />\r\n      <localParams />\r\n    </BehaviorTree>\r\n    <PrioritySelectorNode
    id=\"1\">\r\n      <children>\r\n        <elem>\r\n          <GuardAndNode>\r\n           
    <guard>\r\n              <ConditionEvalNode id=\"3\" />\r\n            </guard>\r\n           
    <child>\r\n              <ActionNode id=\"2\" />\r\n            </child>\r\n         
    </GuardAndNode>\r\n        </elem>\r\n        <elem>\r\n          <GuardAndNode>\r\n           
    <guard>\r\n              <ConditionEvalNode id=\"5\" />\r\n            </guard>\r\n           
    <child>\r\n              <ActionNode id=\"4\" />\r\n            </child>\r\n         
    </GuardAndNode>\r\n        </elem>\r\n      </children>\r\n      <inputParams
    />\r\n      <outputParams />\r\n      <localParams />\r\n    </PrioritySelectorNode>\r\n   
    <ConditionEvalNode id=\"3\" policy=\"WAIT_UNTIL_FALSE_AND_FAIL\" name=\"Perception/IsTargetClose\">\r\n     
    <inputParams>\r\n        <inputValues>\r\n          <entry name=\"target\" type=\"UnityEngine.GameObject\"
    isBlackboard=\"True\" blackboard=\"target\" />\r\n          <entry name=\"closeDistance\"
    type=\"System.Single\" isBlackboard=\"True\" blackboard=\"closeDistance\" />\r\n       
    </inputValues>\r\n      </inputParams>\r\n      <outputParams />\r\n      <localParams
    />\r\n    </ConditionEvalNode>\r\n    <ActionNode id=\"2\" action=\"GameObject/LookAt\">\r\n     
    <inputParams>\r\n        <inputValues>\r\n          <entry name=\"target\" type=\"UnityEngine.GameObject\"
    isBlackboard=\"True\" blackboard=\"target\" />\r\n        </inputValues>\r\n     
    </inputParams>\r\n      <outputParams />\r\n      <localParams />\r\n    </ActionNode>\r\n   
    <ConditionEvalNode id=\"5\" policy=\"WAIT_UNTIL_TRUE_AND_COMPLETE\" name=\"AlwaysTrue\">\r\n     
    <inputParams />\r\n      <outputParams />\r\n      <localParams />\r\n    </ConditionEvalNode>\r\n   
    <ActionNode id=\"4\" action=\"Navigation/MoveToGameObject\">\r\n      <inputParams>\r\n       
    <inputValues>\r\n          <entry name=\"target\" type=\"UnityEngine.GameObject\"
    isBlackboard=\"True\" blackboard=\"target\" />\r\n        </inputValues>\r\n     
    </inputParams>\r\n      <outputParams />\r\n      <localParams />\r\n    </ActionNode>\r\n 
    </runtimeInfo>\r\n  <editorInfo>\r\n    <BehaviorTree id=\"0\" _name=\"ChaseBehavior\"
    _description=\"\" _removeIfClosed=\"False\">\r\n      <_rootList>\r\n       
    <elem>\r\n          <PrioritySelectorNode id=\"1\" />\r\n        </elem>\r\n       
    <elem>\r\n          <ActionNode id=\"2\" />\r\n        </elem>\r\n        <elem>\r\n         
    <ConditionEvalNode id=\"3\" />\r\n        </elem>\r\n        <elem>\r\n         
    <ActionNode id=\"4\" />\r\n        </elem>\r\n        <elem>\r\n          <ConditionEvalNode
    id=\"5\" />\r\n        </elem>\r\n      </_rootList>\r\n      <_nodes>\r\n       
    <nodes>\r\n          <PrioritySelectorNode id=\"1\" />\r\n          <ActionNode
    id=\"2\" />\r\n          <ConditionEvalNode id=\"3\" />\r\n          <ActionNode
    id=\"4\" />\r\n          <ConditionEvalNode id=\"5\" />\r\n        </nodes>\r\n     
    </_nodes>\r\n    </BehaviorTree>\r\n    <PrioritySelectorNode id=\"1\">\r\n     
    <_data>\r\n        <data breakpoint=\"0\" selected=\"False\" position=\"245.4892
    166.1388\" name=\"Priority Selector\" description=\"\" cardinality=\"1\" hasParent=\"False\">\r\n         
    <BehaviorTree id=\"0\" />\r\n          <PrioritySelectorNode id=\"1\" />\r\n       
    </data>\r\n      </_data>\r\n    </PrioritySelectorNode>\r\n    <ConditionEvalNode
    id=\"3\">\r\n      <_data>\r\n        <data breakpoint=\"0\" selected=\"False\"
    position=\"143.9336 387.4722\" name=\"Perception/IsTargetClose\" description=\"Eval\"
    cardinality=\"1\" hasParent=\"True\">\r\n          <BehaviorTree id=\"0\" />\r\n         
    <ConditionEvalNode id=\"3\" />\r\n          <PrioritySelectorNode id=\"1\" />\r\n       
    </data>\r\n      </_data>\r\n    </ConditionEvalNode>\r\n    <ActionNode id=\"2\">\r\n     
    <_data>\r\n        <data breakpoint=\"0\" selected=\"False\" position=\"143.9336
    387.4722\" name=\"GameObject/LookAt\" description=\"Rotates the transform so
    the forward vector of the game object points at target's current position\" cardinality=\"0\"
    hasParent=\"False\">\r\n          <BehaviorTree id=\"0\" />\r\n          <ActionNode
    id=\"2\" />\r\n        </data>\r\n      </_data>\r\n    </ActionNode>\r\n   
    <ConditionEvalNode id=\"5\">\r\n      <_data>\r\n        <data breakpoint=\"0\"
    selected=\"False\" position=\"407.7115 387.5834\" name=\"AlwaysTrue\" description=\"Eval\"
    cardinality=\"1\" hasParent=\"True\">\r\n          <BehaviorTree id=\"0\" />\r\n         
    <ConditionEvalNode id=\"5\" />\r\n          <PrioritySelectorNode id=\"1\" />\r\n       
    </data>\r\n      </_data>\r\n    </ConditionEvalNode>\r\n    <ActionNode id=\"4\">\r\n     
    <_data>\r\n        <data breakpoint=\"0\" selected=\"False\" position=\"407.7115
    387.5834\" name=\"Navigation/MoveToGameObject\" description=\"Moves the gameobject
    towards a given target by using a NavMeshAgent\" cardinality=\"0\" hasParent=\"False\">\r\n         
    <BehaviorTree id=\"0\" />\r\n          <ActionNode id=\"4\" />\r\n        </data>\r\n     
    </_data>\r\n    </ActionNode>\r\n  </editorInfo>\r\n</BehaviorBricks>"
  zoom: 0.9
  subslist: []
  _guid: f58298e6e68f71f4d8bd4050f44bfe0a
