%YAML 1.1
%TAG !u! tag:unity3d.com,2011:
--- !u!114 &11400000
MonoBehaviour:
  m_ObjectHideFlags: 0
  m_CorrespondingSourceObject: {fileID: 0}
  m_PrefabInstance: {fileID: 0}
  m_PrefabAsset: {fileID: 0}
  m_GameObject: {fileID: 0}
  m_Enabled: 1
  m_EditorHideFlags: 0
  m_Script: {fileID: 11500000, guid: 34a7c8ca992f915438a96c2077353778, type: 3}
  m_Name: TankGoldBehavior
  m_EditorClassIdentifier: 
  brickName: Assets/#BehaviorBricks_BehaviorTrees/Behaviors/TankGoldBehavior.asset
  xml: "\uFEFF<?xml version=\"1.0\" encoding=\"utf-8\"?>\r\n<BehaviorBricks xmlns:ref=\"urn:padaone\"
    version=\"1.0\">\r\n  <BehaviorTree id=\"0\" />\r\n  <runtimeInfo>\r\n    <BehaviorTree
    id=\"0\" guid=\"50edbdb41f719bf45ae584d642dad056\" nextId=\"81\">\r\n      <root>\r\n       
    <RepeatDecorator id=\"40\" />\r\n      </root>\r\n      <inputParams>\r\n       
    <inputValues>\r\n          <entry name=\"wayPointsParent\" type=\"UnityEngine.GameObject\"
    isBlackboard=\"False\" />\r\n          <entry name=\"refuelWaypoint\" type=\"UnityEngine.GameObject\"
    isBlackboard=\"False\" />\r\n          <entry name=\"spawnWaypoint\" type=\"UnityEngine.GameObject\"
    isBlackboard=\"False\" />\r\n          <entry name=\"spawnTrigger\" type=\"UnityEngine.GameObject\"
    isBlackboard=\"False\" />\r\n          <entry name=\"canInstantiate\" type=\"System.Boolean\"
    isBlackboard=\"False\" value=\"True\" />\r\n        </inputValues>\r\n      </inputParams>\r\n     
    <outputParams />\r\n      <localParams />\r\n    </BehaviorTree>\r\n    <RepeatDecorator
    id=\"40\" loops=\"-1\" policy=\"ContinueWhenChildFails\">\r\n      <child>\r\n       
    <PrioritySelectorNode id=\"2\" />\r\n      </child>\r\n      <inputParams />\r\n     
    <outputParams />\r\n      <localParams />\r\n    </RepeatDecorator>\r\n    <PrioritySelectorNode
    id=\"2\">\r\n      <children>\r\n        <elem>\r\n          <GuardAndNode>\r\n           
    <guard>\r\n              <ConditionEvalNode id=\"78\" />\r\n            </guard>\r\n           
    <child>\r\n              <PrioritySelectorNode id=\"77\" />\r\n            </child>\r\n         
    </GuardAndNode>\r\n        </elem>\r\n        <elem>\r\n          <GuardAndNode>\r\n           
    <guard>\r\n              <ConditionEvalNode id=\"56\" />\r\n            </guard>\r\n           
    <child>\r\n              <SequenceNode id=\"55\" />\r\n            </child>\r\n         
    </GuardAndNode>\r\n        </elem>\r\n        <elem>\r\n          <GuardAndNode>\r\n           
    <guard>\r\n              <ConditionEvalNode id=\"43\" />\r\n            </guard>\r\n           
    <child>\r\n              <SubbehaviorNode id=\"42\" />\r\n            </child>\r\n         
    </GuardAndNode>\r\n        </elem>\r\n        <elem>\r\n          <GuardAndNode>\r\n           
    <guard>\r\n              <ConditionEvalNode id=\"59\" />\r\n            </guard>\r\n           
    <child>\r\n              <ActionNode id=\"58\" />\r\n            </child>\r\n         
    </GuardAndNode>\r\n        </elem>\r\n        <elem>\r\n          <GuardAndNode>\r\n           
    <guard>\r\n              <ConditionEvalNode id=\"64\" />\r\n            </guard>\r\n           
    <child>\r\n              <ActionNode id=\"8\" />\r\n            </child>\r\n         
    </GuardAndNode>\r\n        </elem>\r\n      </children>\r\n      <inputParams
    />\r\n      <outputParams />\r\n      <localParams />\r\n    </PrioritySelectorNode>\r\n   
    <ConditionEvalNode id=\"78\" policy=\"WAIT_UNTIL_TRUE_AND_COMPLETE\" name=\"Samples/ProgQuickStartGuide/IsNight\">\r\n     
    <inputParams />\r\n      <outputParams />\r\n      <localParams />\r\n    </ConditionEvalNode>\r\n   
    <PrioritySelectorNode id=\"77\">\r\n      <children>\r\n        <elem>\r\n         
    <GuardAndNode>\r\n            <guard>\r\n              <ConditionEvalNode id=\"79\"
    />\r\n            </guard>\r\n            <child>\r\n              <ActionNode
    id=\"67\" />\r\n            </child>\r\n          </GuardAndNode>\r\n       
    </elem>\r\n        <elem>\r\n          <GuardAndNode>\r\n            <guard>\r\n             
    <ConditionEvalNode id=\"80\" />\r\n            </guard>\r\n            <child>\r\n             
    <ActionNode id=\"15\" />\r\n            </child>\r\n          </GuardAndNode>\r\n       
    </elem>\r\n      </children>\r\n      <inputParams />\r\n      <outputParams
    />\r\n      <localParams />\r\n    </PrioritySelectorNode>\r\n    <ConditionEvalNode
    id=\"56\" policy=\"WAIT_UNTIL_TRUE_AND_COMPLETE\" name=\"ThirdParts/isGameObjectClosestFromGameObject\">\r\n     
    <inputParams>\r\n        <inputValues>\r\n          <entry name=\"targetGameObject\"
    type=\"UnityEngine.GameObject\" isBlackboard=\"True\" blackboard=\"spawnTrigger\"
    />\r\n          <entry name=\"distance\" type=\"System.Single\" isBlackboard=\"False\"
    value=\"20\" />\r\n        </inputValues>\r\n      </inputParams>\r\n      <outputParams
    />\r\n      <localParams />\r\n    </ConditionEvalNode>\r\n    <SequenceNode
    id=\"55\">\r\n      <children>\r\n        <elem>\r\n          <ConditionNode
    id=\"57\" />\r\n        </elem>\r\n        <elem>\r\n          <ActionNode id=\"12\"
    />\r\n        </elem>\r\n        <elem>\r\n          <ActionNode id=\"63\" />\r\n       
    </elem>\r\n        <elem>\r\n          <ActionNode id=\"60\" />\r\n        </elem>\r\n     
    </children>\r\n      <inputParams />\r\n      <outputParams />\r\n      <localParams
    />\r\n    </SequenceNode>\r\n    <ConditionEvalNode id=\"43\" policy=\"WAIT_UNTIL_TRUE_AND_COMPLETE\"
    name=\"New/NeedFuel\">\r\n      <inputParams>\r\n        <inputValues>\r\n         
    <entry name=\"minFuelPercentage\" type=\"System.Single\" isBlackboard=\"False\"
    value=\"10\" />\r\n        </inputValues>\r\n      </inputParams>\r\n      <outputParams
    />\r\n      <localParams />\r\n    </ConditionEvalNode>\r\n    <SubbehaviorNode
    id=\"42\">\r\n      <_guid>5c5a2a5cc238e9944a1a4cbd0d915da1</_guid>\r\n     
    <inputParams>\r\n        <inputValues>\r\n          <entry name=\"refuelWaypoint\"
    type=\"UnityEngine.GameObject\" isBlackboard=\"True\" blackboard=\"refuelWaypoint\"
    />\r\n        </inputValues>\r\n      </inputParams>\r\n      <outputParams />\r\n     
    <localParams />\r\n    </SubbehaviorNode>\r\n    <ConditionEvalNode id=\"59\"
    policy=\"WAIT_UNTIL_TRUE_AND_COMPLETE\" name=\"Basic/CheckBool\">\r\n      <inputParams>\r\n       
    <inputValues>\r\n          <entry name=\"valueA\" type=\"System.Boolean\" isBlackboard=\"True\"
    blackboard=\"canInstantiate\" />\r\n          <entry name=\"valueB\" type=\"System.Boolean\"
    isBlackboard=\"False\" value=\"False\" />\r\n        </inputValues>\r\n     
    </inputParams>\r\n      <outputParams />\r\n      <localParams />\r\n    </ConditionEvalNode>\r\n   
    <ActionNode id=\"58\" action=\"Basic/SetBool\">\r\n      <inputParams>\r\n       
    <inputValues>\r\n          <entry name=\"value\" type=\"System.Boolean\" isBlackboard=\"False\"
    value=\"True\" />\r\n        </inputValues>\r\n      </inputParams>\r\n     
    <outputParams>\r\n        <outputValues>\r\n          <entry name=\"var\" type=\"System.Boolean\"
    isBlackboard=\"True\" blackboard=\"canInstantiate\" />\r\n        </outputValues>\r\n     
    </outputParams>\r\n      <localParams />\r\n    </ActionNode>\r\n    <ConditionEvalNode
    id=\"64\" policy=\"WAIT_UNTIL_FALSE_AND_FAIL\" name=\"AlwaysTrue\">\r\n     
    <inputParams />\r\n      <outputParams />\r\n      <localParams />\r\n    </ConditionEvalNode>\r\n   
    <ActionNode id=\"8\" action=\"Navigation/Patrol\">\r\n      <inputParams>\r\n       
    <inputValues>\r\n          <entry name=\"wayPointsParent\" type=\"UnityEngine.GameObject\"
    isBlackboard=\"True\" blackboard=\"wayPointsParent\" />\r\n          <entry name=\"randomWayPoint\"
    type=\"System.Boolean\" isBlackboard=\"False\" value=\"False\" />\r\n       
    </inputValues>\r\n      </inputParams>\r\n      <outputParams />\r\n      <localParams
    />\r\n    </ActionNode>\r\n    <ConditionEvalNode id=\"79\" policy=\"WAIT_UNTIL_TRUE_AND_COMPLETE\"
    name=\"New/CheckMovement\">\r\n      <inputParams>\r\n        <inputValues>\r\n         
    <entry name=\"value\" type=\"System.Boolean\" isBlackboard=\"False\" value=\"False\"
    />\r\n        </inputValues>\r\n      </inputParams>\r\n      <outputParams />\r\n     
    <localParams />\r\n    </ConditionEvalNode>\r\n    <ActionNode id=\"67\" action=\"New/ControlMovement\">\r\n     
    <inputParams>\r\n        <inputValues>\r\n          <entry name=\"value\" type=\"System.Boolean\"
    isBlackboard=\"False\" value=\"True\" />\r\n        </inputValues>\r\n      </inputParams>\r\n     
    <outputParams />\r\n      <localParams />\r\n    </ActionNode>\r\n    <ConditionEvalNode
    id=\"80\" policy=\"WAIT_UNTIL_FALSE_AND_FAIL\" name=\"AlwaysTrue\">\r\n     
    <inputParams />\r\n      <outputParams />\r\n      <localParams />\r\n    </ConditionEvalNode>\r\n   
    <ActionNode id=\"15\" action=\"Samples/ProgQuickStartGuide/SleepForever\">\r\n     
    <inputParams />\r\n      <outputParams />\r\n      <localParams />\r\n    </ActionNode>\r\n   
    <ConditionNode id=\"57\">\r\n      <condition>\r\n        <ConditionEvalNode
    id=\"0\" />\r\n      </condition>\r\n      <inputParams>\r\n        <inputValues>\r\n         
    <entry name=\"valueA\" type=\"System.Boolean\" isBlackboard=\"True\" blackboard=\"canInstantiate\"
    />\r\n          <entry name=\"valueB\" type=\"System.Boolean\" isBlackboard=\"False\"
    value=\"True\" />\r\n        </inputValues>\r\n      </inputParams>\r\n     
    <outputParams />\r\n      <localParams />\r\n    </ConditionNode>\r\n    <ActionNode
    id=\"12\" action=\"GameObject/Instantiate\">\r\n      <inputParams>\r\n       
    <inputValues>\r\n          <entry name=\"original\" type=\"UnityEngine.GameObject\"
    isBlackboard=\"False\" />\r\n          <entry name=\"position\" type=\"UnityEngine.Vector3\"
    isBlackboard=\"False\" value=\"0 0 0\" />\r\n          <entry name=\"waypointPosition\"
    type=\"UnityEngine.GameObject\" isBlackboard=\"True\" blackboard=\"spawnWaypoint\"
    />\r\n          <entry name=\"useWaypointPosition\" type=\"System.Boolean\" isBlackboard=\"False\"
    value=\"True\" />\r\n          <entry name=\"minSpawns\" type=\"System.Int32\"
    isBlackboard=\"False\" value=\"1\" />\r\n          <entry name=\"maxSpawns\"
    type=\"System.Int32\" isBlackboard=\"False\" value=\"3\" />\r\n        </inputValues>\r\n     
    </inputParams>\r\n      <outputParams>\r\n        <outputValues>\r\n         
    <entry name=\"instantiated\" type=\"UnityEngine.GameObject\" isBlackboard=\"True\"
    blackboard=\"\" />\r\n        </outputValues>\r\n      </outputParams>\r\n     
    <localParams />\r\n    </ActionNode>\r\n    <ActionNode id=\"63\" action=\"Basic/SetBool\">\r\n     
    <inputParams>\r\n        <inputValues>\r\n          <entry name=\"value\" type=\"System.Boolean\"
    isBlackboard=\"False\" value=\"False\" />\r\n        </inputValues>\r\n     
    </inputParams>\r\n      <outputParams>\r\n        <outputValues>\r\n         
    <entry name=\"var\" type=\"System.Boolean\" isBlackboard=\"True\" blackboard=\"canInstantiate\"
    />\r\n        </outputValues>\r\n      </outputParams>\r\n      <localParams
    />\r\n    </ActionNode>\r\n    <ActionNode id=\"60\" action=\"Navigation/Patrol\">\r\n     
    <inputParams>\r\n        <inputValues>\r\n          <entry name=\"wayPointsParent\"
    type=\"UnityEngine.GameObject\" isBlackboard=\"True\" blackboard=\"wayPointsParent\"
    />\r\n        </inputValues>\r\n      </inputParams>\r\n      <outputParams />\r\n     
    <localParams />\r\n    </ActionNode>\r\n    <ConditionEvalNode id=\"0\" policy=\"ATOMIC_CHECK\"
    name=\"Basic/CheckBool\">\r\n      <inputParams />\r\n      <outputParams />\r\n     
    <localParams />\r\n    </ConditionEvalNode>\r\n  </runtimeInfo>\r\n  <editorInfo>\r\n   
    <BehaviorTree id=\"0\" _name=\"TankGoldBehavior\" _description=\"\" _removeIfClosed=\"False\">\r\n     
    <_rootList>\r\n        <elem>\r\n          <PrioritySelectorNode id=\"2\" />\r\n       
    </elem>\r\n        <elem>\r\n          <ActionNode id=\"8\" />\r\n        </elem>\r\n       
    <elem>\r\n          <ActionNode id=\"12\" />\r\n        </elem>\r\n        <elem>\r\n         
    <ActionNode id=\"15\" />\r\n        </elem>\r\n        <elem>\r\n          <RepeatDecorator
    id=\"40\" />\r\n        </elem>\r\n        <elem>\r\n          <SubbehaviorNode
    id=\"42\" />\r\n        </elem>\r\n        <elem>\r\n          <ConditionEvalNode
    id=\"43\" />\r\n        </elem>\r\n        <elem>\r\n          <SequenceNode
    id=\"55\" />\r\n        </elem>\r\n        <elem>\r\n          <ConditionEvalNode
    id=\"56\" />\r\n        </elem>\r\n        <elem>\r\n          <ConditionNode
    id=\"57\" />\r\n        </elem>\r\n        <elem>\r\n          <ActionNode id=\"58\"
    />\r\n        </elem>\r\n        <elem>\r\n          <ConditionEvalNode id=\"59\"
    />\r\n        </elem>\r\n        <elem>\r\n          <ActionNode id=\"63\" />\r\n       
    </elem>\r\n        <elem>\r\n          <ActionNode id=\"60\" />\r\n        </elem>\r\n       
    <elem>\r\n          <ConditionEvalNode id=\"64\" />\r\n        </elem>\r\n       
    <elem>\r\n          <ActionNode id=\"67\" />\r\n        </elem>\r\n        <elem>\r\n         
    <PrioritySelectorNode id=\"77\" />\r\n        </elem>\r\n        <elem>\r\n         
    <ConditionEvalNode id=\"78\" />\r\n        </elem>\r\n        <elem>\r\n         
    <ConditionEvalNode id=\"79\" />\r\n        </elem>\r\n        <elem>\r\n         
    <ConditionEvalNode id=\"80\" />\r\n        </elem>\r\n      </_rootList>\r\n     
    <_nodes>\r\n        <nodes>\r\n          <PrioritySelectorNode id=\"2\" />\r\n         
    <ActionNode id=\"8\" />\r\n          <ActionNode id=\"12\" />\r\n          <ActionNode
    id=\"15\" />\r\n          <SequenceNode id=\"55\" />\r\n          <RepeatDecorator
    id=\"40\" />\r\n          <SubbehaviorNode id=\"42\" />\r\n          <ConditionEvalNode
    id=\"43\" />\r\n          <ConditionEvalNode id=\"56\" />\r\n          <ConditionNode
    id=\"57\" />\r\n          <ActionNode id=\"58\" />\r\n          <ConditionEvalNode
    id=\"59\" />\r\n          <ActionNode id=\"60\" />\r\n          <ActionNode id=\"63\"
    />\r\n          <ConditionEvalNode id=\"64\" />\r\n          <ActionNode id=\"67\"
    />\r\n          <ConditionEvalNode id=\"78\" />\r\n          <PrioritySelectorNode
    id=\"77\" />\r\n          <ConditionEvalNode id=\"79\" />\r\n          <ConditionEvalNode
    id=\"80\" />\r\n        </nodes>\r\n      </_nodes>\r\n    </BehaviorTree>\r\n   
    <RepeatDecorator id=\"40\">\r\n      <_data>\r\n        <data breakpoint=\"0\"
    selected=\"False\" position=\"1136.74 192.4432\" name=\"Repeat\" description=\"Repeats
    the execution of its child node\" cardinality=\"1\" hasParent=\"False\">\r\n         
    <BehaviorTree id=\"0\" />\r\n          <RepeatDecorator id=\"40\" />\r\n       
    </data>\r\n      </_data>\r\n    </RepeatDecorator>\r\n    <PrioritySelectorNode
    id=\"2\">\r\n      <_data>\r\n        <data breakpoint=\"0\" selected=\"False\"
    position=\"1141.075 339.301\" name=\"Priority Selector\" description=\"\" cardinality=\"1\"
    hasParent=\"True\">\r\n          <BehaviorTree id=\"0\" />\r\n          <PrioritySelectorNode
    id=\"2\" />\r\n          <RepeatDecorator id=\"40\" />\r\n        </data>\r\n     
    </_data>\r\n    </PrioritySelectorNode>\r\n    <ConditionEvalNode id=\"78\">\r\n     
    <_data>\r\n        <data breakpoint=\"0\" selected=\"False\" position=\"172.2222
    849.9999\" name=\"Samples/ProgQuickStartGuide/IsNight\" description=\"Eval\"
    cardinality=\"1\" hasParent=\"True\">\r\n          <BehaviorTree id=\"0\" />\r\n         
    <ConditionEvalNode id=\"78\" />\r\n          <PrioritySelectorNode id=\"2\" />\r\n       
    </data>\r\n      </_data>\r\n    </ConditionEvalNode>\r\n    <PrioritySelectorNode
    id=\"77\">\r\n      <_data>\r\n        <data breakpoint=\"0\" selected=\"False\"
    position=\"233.3332 510.0001\" name=\"Priority Selector\" description=\"\" cardinality=\"1\"
    hasParent=\"False\">\r\n          <BehaviorTree id=\"0\" />\r\n          <PrioritySelectorNode
    id=\"77\" />\r\n        </data>\r\n      </_data>\r\n    </PrioritySelectorNode>\r\n   
    <ConditionEvalNode id=\"56\">\r\n      <_data>\r\n        <data breakpoint=\"0\"
    selected=\"False\" position=\"736.4632 594.8801\" name=\"ThirdParts/isGameObjectClosestFromGameObject\"
    description=\"Eval\" cardinality=\"1\" hasParent=\"True\">\r\n          <BehaviorTree
    id=\"0\" />\r\n          <ConditionEvalNode id=\"56\" />\r\n          <PrioritySelectorNode
    id=\"2\" />\r\n        </data>\r\n      </_data>\r\n    </ConditionEvalNode>\r\n   
    <SequenceNode id=\"55\">\r\n      <_data>\r\n        <data breakpoint=\"0\" selected=\"False\"
    position=\"694.5883 523.9426\" name=\"Sequence\" description=\"Executes all its
    children in sequence until all of them are successful\" cardinality=\"-1\" hasParent=\"False\">\r\n         
    <BehaviorTree id=\"0\" />\r\n          <SequenceNode id=\"55\" />\r\n       
    </data>\r\n      </_data>\r\n    </SequenceNode>\r\n    <ConditionEvalNode id=\"43\">\r\n     
    <_data>\r\n        <data breakpoint=\"0\" selected=\"False\" position=\"1159.033
    545.4745\" name=\"New/NeedFuel\" description=\"Eval\" cardinality=\"1\" hasParent=\"True\">\r\n         
    <BehaviorTree id=\"0\" />\r\n          <ConditionEvalNode id=\"43\" />\r\n         
    <PrioritySelectorNode id=\"2\" />\r\n        </data>\r\n      </_data>\r\n   
    </ConditionEvalNode>\r\n    <SubbehaviorNode id=\"42\">\r\n      <_data>\r\n       
    <data breakpoint=\"0\" selected=\"False\" position=\"1128.909 522.0179\" name=\"RefuelBehavior\"
    description=\"\" cardinality=\"-1\" hasParent=\"False\">\r\n          <BehaviorTree
    id=\"0\" />\r\n          <SubbehaviorNode id=\"42\" />\r\n        </data>\r\n     
    </_data>\r\n    </SubbehaviorNode>\r\n    <ConditionEvalNode id=\"59\">\r\n     
    <_data>\r\n        <data breakpoint=\"0\" selected=\"False\" position=\"1496.082
    611.6786\" name=\"Basic/CheckBool\" description=\"Eval\" cardinality=\"1\" hasParent=\"True\">\r\n         
    <BehaviorTree id=\"0\" />\r\n          <ConditionEvalNode id=\"59\" />\r\n         
    <PrioritySelectorNode id=\"2\" />\r\n        </data>\r\n      </_data>\r\n   
    </ConditionEvalNode>\r\n    <ActionNode id=\"58\">\r\n      <_data>\r\n       
    <data breakpoint=\"0\" selected=\"False\" position=\"1360.143 519.8036\" name=\"Basic/SetBool\"
    description=\"Sets a value to a boolean variable\" cardinality=\"0\" hasParent=\"False\">\r\n         
    <BehaviorTree id=\"0\" />\r\n          <ActionNode id=\"58\" />\r\n        </data>\r\n     
    </_data>\r\n    </ActionNode>\r\n    <ConditionEvalNode id=\"64\">\r\n      <_data>\r\n       
    <data breakpoint=\"0\" selected=\"False\" position=\"1622.649 570.6551\" name=\"AlwaysTrue\"
    description=\"Eval\" cardinality=\"1\" hasParent=\"True\">\r\n          <BehaviorTree
    id=\"0\" />\r\n          <ConditionEvalNode id=\"64\" />\r\n          <PrioritySelectorNode
    id=\"2\" />\r\n        </data>\r\n      </_data>\r\n    </ConditionEvalNode>\r\n   
    <ActionNode id=\"8\">\r\n      <_data>\r\n        <data breakpoint=\"0\" selected=\"False\"
    position=\"1579.833 524.1365\" name=\"Navigation/Patrol\" description=\"Patrolling
    a list of Waypoints and NavMeshAgent\" cardinality=\"0\" hasParent=\"False\">\r\n         
    <BehaviorTree id=\"8\" />\r\n        </data>\r\n      </_data>\r\n    </ActionNode>\r\n   
    <ConditionEvalNode id=\"79\">\r\n      <_data>\r\n        <data breakpoint=\"0\"
    selected=\"False\" position=\"39.69225 1253.197\" name=\"New/CheckMovement\"
    description=\"Eval\" cardinality=\"1\" hasParent=\"True\">\r\n          <BehaviorTree
    id=\"0\" />\r\n          <ConditionEvalNode id=\"79\" />\r\n          <PrioritySelectorNode
    id=\"77\" />\r\n        </data>\r\n      </_data>\r\n    </ConditionEvalNode>\r\n   
    <ActionNode id=\"67\">\r\n      <_data>\r\n        <data breakpoint=\"0\" selected=\"True\"
    position=\"95.81533 709.2532\" name=\"New/ControlMovement\" description=\"Sets
    a value to a boolean variable to control isStoped\" cardinality=\"0\" hasParent=\"False\">\r\n         
    <BehaviorTree id=\"67\" />\r\n        </data>\r\n      </_data>\r\n    </ActionNode>\r\n   
    <ConditionEvalNode id=\"80\">\r\n      <_data>\r\n        <data breakpoint=\"0\"
    selected=\"False\" position=\"496.0114 1253.876\" name=\"AlwaysTrue\" description=\"Eval\"
    cardinality=\"1\" hasParent=\"True\">\r\n          <BehaviorTree id=\"0\" />\r\n         
    <ConditionEvalNode id=\"80\" />\r\n          <PrioritySelectorNode id=\"77\"
    />\r\n        </data>\r\n      </_data>\r\n    </ConditionEvalNode>\r\n    <ActionNode
    id=\"15\">\r\n      <_data>\r\n        <data breakpoint=\"0\" selected=\"False\"
    position=\"372.2738 710.3257\" name=\"Samples/ProgQuickStartGuide/SleepForever\"
    description=\"Low-cost infinite action that never ends. It does not consume CPU
    at all.\" cardinality=\"0\" hasParent=\"False\">\r\n          <BehaviorTree id=\"65\"
    />\r\n        </data>\r\n      </_data>\r\n    </ActionNode>\r\n    <ConditionNode
    id=\"57\">\r\n      <_data>\r\n        <data breakpoint=\"0\" selected=\"False\"
    position=\"600.0319 741.8597\" name=\"Basic/CheckBool\" description=\"Checks
    whether two booleans have the same value\" cardinality=\"0\" hasParent=\"True\">\r\n         
    <BehaviorTree id=\"0\" />\r\n          <ConditionNode id=\"57\" />\r\n         
    <SequenceNode id=\"55\" />\r\n        </data>\r\n      </_data>\r\n    </ConditionNode>\r\n   
    <ActionNode id=\"12\">\r\n      <_data>\r\n        <data breakpoint=\"0\" selected=\"False\"
    position=\"765.6526 742.0018\" name=\"GameObject/Instantiate\" description=\"Clones
    the object original and returns the clone\" cardinality=\"0\" hasParent=\"True\">\r\n         
    <BehaviorTree id=\"0\" />\r\n          <SequenceNode id=\"55\" />\r\n         
    <SequenceNode id=\"55\" />\r\n        </data>\r\n      </_data>\r\n    </ActionNode>\r\n   
    <ActionNode id=\"63\">\r\n      <_data>\r\n        <data breakpoint=\"0\" selected=\"False\"
    position=\"959.173 739.5541\" name=\"Basic/SetBool\" description=\"Sets a value
    to a boolean variable\" cardinality=\"0\" hasParent=\"True\">\r\n          <BehaviorTree
    id=\"0\" />\r\n          <ActionNode id=\"63\" />\r\n          <SequenceNode
    id=\"55\" />\r\n        </data>\r\n      </_data>\r\n    </ActionNode>\r\n   
    <ActionNode id=\"60\">\r\n      <_data>\r\n        <data breakpoint=\"0\" selected=\"False\"
    position=\"1128.924 742.4427\" name=\"Navigation/Patrol\" description=\"Patrolling
    a list of Waypoints and NavMeshAgent\" cardinality=\"0\" hasParent=\"True\">\r\n         
    <BehaviorTree id=\"0\" />\r\n          <SequenceNode id=\"55\" />\r\n         
    <SequenceNode id=\"55\" />\r\n        </data>\r\n      </_data>\r\n    </ActionNode>\r\n   
    <ConditionEvalNode id=\"0\">\r\n      <_data>\r\n        <data breakpoint=\"0\"
    selected=\"False\" position=\"0 0\" name=\"AlwaysTrue\" description=\"Eval\"
    cardinality=\"1\" hasParent=\"False\">\r\n          <BehaviorTree id=\"0\" />\r\n       
    </data>\r\n      </_data>\r\n    </ConditionEvalNode>\r\n  </editorInfo>\r\n 
    <runtimeInfo>\r\n    <BehaviorTree id=\"8\" nextId=\"1\">\r\n      <inputParams
    />\r\n      <outputParams />\r\n      <localParams />\r\n    </BehaviorTree>\r\n   
    <BehaviorTree id=\"67\" nextId=\"1\">\r\n      <inputParams />\r\n      <outputParams
    />\r\n      <localParams />\r\n    </BehaviorTree>\r\n    <BehaviorTree id=\"65\"
    nextId=\"1\">\r\n      <inputParams />\r\n      <outputParams />\r\n      <localParams
    />\r\n    </BehaviorTree>\r\n  </runtimeInfo>\r\n  <editorInfo>\r\n    <BehaviorTree
    id=\"8\" _removeIfClosed=\"False\">\r\n      <_rootList />\r\n      <_nodes>\r\n       
    <nodes />\r\n      </_nodes>\r\n    </BehaviorTree>\r\n    <BehaviorTree id=\"67\"
    _removeIfClosed=\"False\">\r\n      <_rootList />\r\n      <_nodes>\r\n       
    <nodes />\r\n      </_nodes>\r\n    </BehaviorTree>\r\n    <BehaviorTree id=\"65\"
    _removeIfClosed=\"False\">\r\n      <_rootList />\r\n      <_nodes>\r\n       
    <nodes />\r\n      </_nodes>\r\n    </BehaviorTree>\r\n  </editorInfo>\r\n</BehaviorBricks>"
  zoom: 0.6
  subslist:
  - {fileID: 11400000, guid: 5c5a2a5cc238e9944a1a4cbd0d915da1, type: 2}
  _guid: 50edbdb41f719bf45ae584d642dad056
